
PD2_D1.GSI

PD1                   36.0      10374965.0       1135197.0
PD1                   35.0      10375018.0       1135197.0
PD1             19999870.0      29625379.0       1135196.0
PD1             19999914.0      29625358.0       1135197.0

PD1_D2.GSI

PD2                   30.0       9640889.0       1135081.0
PD2                   38.0       9640846.0       1135081.0
PD2                   16.0       9640899.0       1135080.0
PD2             19999932.0      30359620.0       1135080.0
PD2             19999948.0      30359579.0       1135079.0
P1              13010601.0      10129288.0        598521.0
P1              13010578.0      10129323.0        598522.0
P2              13317501.0      10067594.0       1154958.0
P2              13317507.0      10067613.0       1154958.0
P3              13748050.0      10038409.0       1982547.0
P3              13748002.0      10038375.0       1982548.0
P3              13748015.0      10038389.0       1982549.0
P3              33747937.0      29962029.0       1982548.0
P3              33747956.0      29962046.0       1982548.0
P2              33317418.0      29932812.0       1154957.0
P2              33317377.0      29932830.0       1154958.0
P1              33010427.0      29871134.0        598527.0
P1              33010472.0      29871147.0        598521.0
P1              33010442.0      29871115.0        598521.0
PD2             19999893.0      30359546.0       1135079.0
PD2             19999939.0      30359518.0       1135079.0
PD2             19999896.0      30359511.0       1135080.0
PD2                   31.0       9640824.0       1135079.0
PD2                   43.0       9640864.0       1135081.0

P1_D1.GSI

PD1             39999949.0       9900357.0        598482.0
PD1             39999960.0       9900362.0        598483.0
PD1             19999830.0      30100053.0        598483.0
PD1             19999844.0      30100066.0        598482.0
P2              20634950.0      10016818.0        557959.0
P2              20634974.0      10016843.0        557959.0
P3              21053446.0      10005258.0       1389864.0
P3              21053451.0      10005237.0       1389864.0
P3               1053326.0      29995199.0       1389865.0
P3               1053336.0      29995228.0       1389864.0
P2                634811.0      29983678.0        557958.0
P2                634793.0      29983645.0        557958.0
P2                634815.0      29983649.0        557958.0
PD1             19999815.0      30100031.0        598482.0
PD1             19999838.0      30100042.0        598483.0
PD1             39999986.0       9900406.0        598483.0
PD1             39999958.0       9900395.0        598483.0

P2_D1.GSI

PD1             39999999.0       9948232.0       1154983.0
PD1             39999972.0       9948228.0       1154983.0
PD1             19999799.0      30052159.0       1154982.0
PD1             19999815.0      30052152.0       1154984.0
P1                328831.0      10015204.0        557957.0
P1                328827.0      10015206.0        557957.0
P3              21026932.0      10007982.0        833905.0
P3              21026943.0      10008009.0        833905.0
P3               1026792.0      29992371.0        833905.0
P3               1026792.0      29992371.0        833906.0
P1              20328697.0      29985187.0        557956.0
P1              20328682.0      29985198.0        557957.0
PD1             19999821.0      30052130.0       1154983.0
PD1             19999817.0      30052134.0       1154983.0
PD1             39999961.0       9948195.0       1154982.0
PD1             39999945.0       9948201.0       1154982.0

P3_D1.GSI

PD1                   27.0       9971262.0       1982591.0
PD1                   28.0       9971255.0       1982593.0
PD1             19999887.0      30029206.0       1982593.0
PD1             19999873.0      30029246.0       1982593.0
P1                316822.0      10008066.0       1389871.0
P1                316807.0      10008089.0       1389871.0
P2                596627.0      10013686.0        833948.0
P2                596625.0      10013688.0        833948.0
P4              22603802.0      10015053.0        878322.0
P4              22603798.0      10015049.0        878322.0
P4               2603662.0      29985415.0        878322.0
P4               2603686.0      29985386.0        878322.0
P2              20596467.0      29986781.0        833948.0
P2              20596495.0      29986766.0        833947.0
P1              20316658.0      29992438.0       1389871.0
P1              20316684.0      29992439.0       1389869.0
PD1             19999895.0      30029219.0       1982592.0
PD1             19999842.0      30029248.0       1982592.0
PD1             19999861.0      30029216.0       1982593.0
PD1             39999983.0       9971242.0       1982593.0
PD1             40000000.0       9971242.0       1982592.0

P4_3.GSI

P3              39999985.0      10005509.0        878358.0
P3              39999987.0      10005509.0        878358.0
P3              19999824.0      29995000.0        878359.0
P3              19999851.0      29994996.0        878358.0
P5              22463372.0      10006387.0        765776.0
P5              22463372.0      10006404.0        765775.0
P6              23297333.0      10006063.0       1369421.0
P6              23297303.0      10006054.0       1369421.0
P6              23297299.0      10006081.0       1369420.0
P6               3297183.0      29994379.0       1369424.0
P6               3297190.0      29994429.0       1369422.0
P6               3297181.0      29994391.0       1369423.0
P5               2463237.0      29994151.0        765776.0
P5               2463233.0      29994127.0        765776.0
P3              19999872.0      29994978.0        878359.0
P3              19999861.0      29994986.0        878358.0
P3              39999970.0      10005501.0        878359.0
P3              39999989.0      10005464.0        878359.0

P5_4.GSI

P4                    96.0      10017128.0        765777.0
P4                    63.0      10017114.0        765777.0
P4              19999978.0      29983387.0        765778.0
P4              19999957.0      29983343.0        765777.0
P4              19999943.0      29983392.0        765777.0
P6              21869057.0      10019650.0        618380.0
P6              21869060.0      10019689.0        618381.0
P7              22417970.0      10010226.0       1175640.0
P7              22417955.0      10010192.0       1175641.0
P7               2417831.0      29990230.0       1175640.0
P7               2417865.0      29990269.0       1175641.0
P6               1868897.0      29980859.0        618380.0
P6               1868920.0      29980845.0        618380.0
P4              19999982.0      29983343.0        765778.0
P4              19999988.0      29983355.0        765778.0
P4                    91.0      10017135.0        765777.0
P4                    67.0      10017100.0        765778.0

P6_4.GSI

P4                    82.0      10007425.0       1369450.0
P4                    62.0      10007418.0       1369448.0
P4              19999931.0      29993042.0       1369449.0
P4              19999916.0      29993042.0       1369449.0
P5               1034372.0      10009306.0        618367.0
P5               1034364.0      10009326.0        618367.0
P7              22187883.0      10015260.0        562081.0
P7              22187878.0      10015269.0        562080.0
P8              23073916.0      10005672.0       1497306.0
P8              23073913.0      10005699.0       1497325.0
P8               3073743.0      29994795.0       1497308.0
P8               3073764.0      29994791.0       1497307.0
P7               2187724.0      29985211.0        562080.0
P7               2187723.0      29985205.0        562080.0
P5              21034221.0      29991130.0        618367.0
P5              21034226.0      29991165.0        618366.0
P5              21034204.0      29991151.0        618366.0
P4              19999929.0      29993062.0       1369449.0
P4              19999945.0      29993052.0       1369448.0
P4                   119.0      10007432.0       1369448.0
P4                   110.0      10007453.0       1369449.0

P7_5.GSI

P5                    12.0      10005420.0       1175629.0
P5                    12.0      10005405.0       1175628.0
P5              19999861.0      29995034.0       1175629.0
P5              19999848.0      29995042.0       1175628.0
P6                604114.0      10016566.0        562103.0
P6                604097.0      10016559.0        562104.0
P8              22017103.0      10009125.0        943884.0
P8              22017083.0      10009144.0        943885.0
P8               2016973.0      29991287.0        943885.0
P8               2016963.0      29991275.0        943885.0
P6              20603957.0      29983865.0        562104.0
P6              20603974.0      29983869.0        562103.0
P5              19999866.0      29995040.0       1175629.0
P5              19999853.0      29995016.0       1175628.0
P5              39999985.0      10005438.0       1175628.0
P5              39999990.0      10005436.0       1175629.0

P8_6.GSI

P6              39999985.0      10006801.0       1497311.0
P6              39999975.0      10006819.0       1497312.0
P6              19999802.0      29993676.0       1497312.0
P6              19999788.0      29993689.0       1497314.0
P7                526449.0      10010095.0        943885.0
P7                526419.0      10010114.0        943886.0
P10             17760920.0      10007606.0       1460162.0
P10             17760956.0      10007574.0       1460163.0
PE              19481469.0       9838322.0       3376890.0
PE              19481424.0       9838355.0       3376892.0
PE              19481444.0       9838362.0       3376891.0
P9              20294556.0      10009803.0        782810.0
P9              20294544.0      10009774.0        782810.0
P9                294406.0      29990632.0        782809.0
P9                294395.0      29990633.0        782810.0
PE              39481268.0      30161935.0       3376890.0
PE              39481260.0      30161955.0       3376890.0
P10             37760797.0      29992723.0       1460162.0
P10             37760800.0      29992734.0       1460163.0
P7              20526318.0      29990271.0        943886.0
P7              20526312.0      29990277.0        943887.0
P6              19999794.0      29993594.0       1497324.0
P6              19999798.0      29993620.0       1497316.0
P6              39999938.0      10006780.0       1497313.0
P6              39999929.0      10006784.0       1497313.0

P9_E.GSI

PE              39999946.0       9790758.0       2602676.0
PE              39999970.0       9790745.0       2602676.0
PE              19999818.0      30209702.0       2602677.0
PE              19999796.0      30209697.0       2602677.0
P8              21056877.0      10013274.0        782812.0
P8              21056864.0      10013270.0        782813.0
P10             36042258.0      10015261.0        798396.0
P10             36042249.0      10015269.0        798396.0
P10             16042108.0      29985136.0        798409.0
P10             16042110.0      29985154.0        798396.0
P8               1056709.0      29987188.0        782812.0
P8               1056746.0      29987238.0        782813.0
P8               1056744.0      29987220.0        782813.0
PE              19999812.0      30209629.0       2602677.0
PE              19999819.0      30209635.0       2602678.0
PE              39999974.0       9790709.0       2602678.0
PE              39999995.0       9790692.0       2602676.0

P10_11.GSI

P11                  140.0      10016987.0        906833.0
P11                   99.0      10017006.0        906833.0
P11             19999834.0      29983445.0        906833.0
P11             19999874.0      29983413.0        906833.0
PE               3738744.0       9727018.0       2008719.0
PE               3738740.0       9727054.0       2008719.0
P9              18292193.0      10007112.0        798430.0
P9              18292204.0      10007137.0        798429.0
P8              20773596.0      10004890.0       1460164.0
P8              20773569.0      10004900.0       1460163.0
P8                773367.0      29995444.0       1460163.0
P8                773366.0      29995431.0       1460164.0
P9              38292028.0      29993322.0        798429.0
P9              38291996.0      29993375.0        798430.0
P9              38292019.0      29993325.0        798430.0
PE              23738583.0      30273399.0       2008717.0
PE              23738599.0      30273362.0       2008718.0
P11             19999936.0      29983474.0        906834.0
P11             19999947.0      29983509.0        906833.0
P11                  110.0      10016768.0        906835.0
P11                   69.0      10016763.0        906834.0

P11_E.GSI

PE                    10.0       9589398.0       1351827.0
PE                     4.0       9589394.0       1351828.0
PE              19999836.0      30411127.0       1351827.0
PE              19999838.0      30411109.0       1351827.0
P10             13831715.0      10002965.0        906834.0
P10             13831719.0      10003004.0        906834.0
P10             33831556.0      29997525.0        906835.0
P10             33831571.0      29997509.0        906835.0
PE              19999853.0      30411153.0       1351828.0
PE              19999865.0      30411146.0       1351827.0
PE              39999997.0       9589271.0       1351828.0
PE              39999984.0       9589308.0       1351828.0

PE_9.GSI

P9              39999977.0      10216691.0       2602755.0
P9              39999984.0      10216680.0       2602755.0
P9              19999809.0      29783817.0       2602756.0
P9              19999813.0      29783802.0       2602756.0
P8                244018.0      10167471.0       3376934.0
P8                244061.0      10167438.0       3376934.0
P8                244014.0      10167481.0       3376935.0
P10              1488561.0      10282243.0       2008799.0
P10              1488552.0      10282288.0       2008798.0
P10              1488566.0      10282290.0       2008798.0
P11              3918432.0      10424117.0       1352003.0
P11              3918427.0      10424099.0       1352003.0
P11             23918206.0      29576323.0       1352004.0
P11             23918234.0      29576359.0       1352003.0
P10             21488415.0      29718125.0       2008798.0
P10             21488402.0      29718153.0       2008798.0
P8              20243838.0      29832890.0       3376937.0
P8              20243866.0      29832850.0       3376936.0
P9              19999767.0      29783718.0       2602758.0
P9              19999771.0      29783693.0       2602755.0
P9              39999951.0      10216724.0       2602756.0
P9              39999925.0      10216714.0       2602756.0

PJ.GSI

506J            39999983.0      10937789.0        560342.0
506J            39999983.0      10937773.0        560343.0
506J            19999706.0      29062712.0        560342.0
506J            19999697.0      29062699.0        560342.0

56J_PJ.GSI

00PJ                  29.0       9093708.0        559965.0
00PJ                   6.0       9093698.0        559965.0
00PJ            19999879.0      30906810.0        559965.0
00PJ            19999882.0      30906802.0        559965.0
5006            23543095.0      10075484.0        105324.0
5006            23543089.0      10075511.0        105323.0
5006             3542771.0      29925190.0        105322.0
5006             3542780.0      29925191.0        105322.0
00PJ            19999883.0      30906798.0        559965.0
00PJ            19999889.0      30906832.0        559965.0
00PJ            19999881.0      30906808.0        559965.0

56J_PJ.GSI

00PJ            39999950.0       9093625.0        559965.0
00PJ            39999970.0       9093626.0        559965.0
00PJ            19999935.0      30906767.0        559965.0
00PJ            19999914.0      30906784.0        559965.0
5006            23543119.0      10075452.0        105324.0
5006            23543122.0      10075462.0        105323.0
5006             3542765.0      29925156.0        105323.0
5006             3542793.0      29925143.0        105323.0
00PJ            19999893.0      30906784.0        559965.0
00PJ            19999892.0      30906793.0        559965.0
00PJ            39999971.0       9093675.0        559966.0
00PJ            39999955.0       9093701.0        559965.0

56_1EJ.GSI

101EJ           39999975.0       9970857.0        709774.0
101EJ           39999986.0       9970855.0        709774.0
101EJ           19999836.0      30029624.0        709773.0
101EJ           19999885.0      30029597.0        709775.0
101EJ           19999872.0      30029581.0        709773.0
0506J            8759970.0      10092396.0        105323.0
0506J            8760007.0      10092418.0        105322.0
00809           18892294.0      10022455.0        415927.0
00809           18892262.0      10022462.0        415926.0
00809           38892093.0      29978033.0        415927.0
00809           38892088.0      29978031.0        415926.0
0506J           28759665.0      29908286.0        105320.0
0506J           28759679.0      29908261.0        105321.0
101EJ           19999927.0      30029597.0        709775.0
101EJ           19999895.0      30029584.0        709774.0
101EJ                 45.0       9970932.0        709774.0
101EJ                 31.0       9970944.0        709775.0

1EJ_56.GSI

05006                 49.0      10053870.0        709806.0
05006                 39.0      10053894.0        709805.0
05006           19999855.0      29946695.0        709805.0
05006           19999864.0      29946714.0        709805.0
0101EM          10237999.0      10069275.0        118888.0
0101EM          10238015.0      10069297.0        118889.0
0101EM          30237637.0      29931371.0        118891.0
0101EM          30237657.0      29931345.0        118891.0
05006           19999863.0      29946821.0        709807.0
05006           19999850.0      29946804.0        709805.0
05006                 38.0      10053689.0        709808.0
05006                 33.0      10053698.0        709806.0

1EM_EE.GSI

EE              39999903.0       9949880.0        438943.0
EE              39999913.0       9949905.0        438944.0
EE              19999753.0      30050606.0        438943.0
EE              19999743.0      30050598.0        438943.0
0101EJ          10072377.0      10076069.0        118889.0
0101EJ          10072377.0      10076046.0        118890.0
0101EJ          30072049.0      29924487.0        118889.0
0101EJ          30072079.0      29924464.0        118888.0
0101EJ          30072070.0      29924451.0        118888.0
EE              19999809.0      30050528.0        438944.0
EE              19999809.0      30050546.0        438943.0
EE              39999948.0       9949973.0        438944.0
EE              39999928.0       9949966.0        438945.0

EE.GSI

101EM                 38.0      10090113.0        438982.0
101EM                 28.0      10090096.0        438981.0
101EM           19999803.0      29910448.0        438982.0
101EM           19999781.0      29910439.0        438983.0

89_56.GSI

0506                  26.0      10020018.0        415911.0
0506                  50.0      10019999.0        415912.0
0506            19999897.0      29980476.0        415912.0
0506            19999910.0      29980491.0        415912.0
1112            18638544.0      10026270.0        403853.0
1112            18638542.0      10026297.0        403853.0
1112            38638344.0      29974212.0        403852.0
1112            38638382.0      29974201.0        403853.0
1112            38638372.0      29974202.0        403853.0
0506            19999891.0      29980548.0        415912.0
0506            19999894.0      29980578.0        415912.0
0506            19999894.0      29980568.0        415912.0
0506                  78.0      10019901.0        415912.0
0506                  65.0      10019902.0        415912.0

1112_89.GSI

0809                 257.0      10017841.0        403821.0
0809                 240.0      10017847.0        403822.0
0809            20000278.0      29982637.0        403821.0
0809            20000292.0      29982624.0        403822.0
1314            18349089.0      10020754.0        386442.0
1314            18349090.0      10020747.0        386442.0
1314            38348889.0      29979721.0        386442.0
1314            38348911.0      29979725.0        386443.0
0809            20000305.0      29982626.0        403821.0
0809            20000320.0      29982612.0        403822.0
0809                 527.0      10017839.0        403822.0
0809                 514.0      10017827.0        403822.0

1112_89.GSI

0809            39999992.0      10017807.0        403823.0
0809            39999984.0      10017791.0        403822.0
0809            19999837.0      29982621.0        403822.0
0809            19999842.0      29982623.0        403822.0
1314            18348613.0      10020825.0        386443.0
1314            18348618.0      10020809.0        386443.0
1314            38348438.0      29979674.0        386443.0
1314            38348462.0      29979666.0        386443.0
0809            19999853.0      29982636.0        403823.0
0809            19999860.0      29982620.0        403823.0
0809            39999995.0      10017816.0        403823.0
0809            39999991.0      10017784.0        403823.0
0809            39999985.0      10017784.0        403823.0

1314_11.GSI

1112            39999980.0      10025271.0        386421.0
1112            39999988.0      10025291.0        386422.0
1112            19999831.0      29975183.0        386421.0
1112            19999836.0      29975191.0        386423.0
1516            18764793.0      10020524.0        216178.0
1516            18764801.0      10020516.0        216179.0
1516            38764580.0      29979979.0        216178.0
1516            38764585.0      29979963.0        216177.0
1112            19999813.0      29975179.0        386423.0
1112            19999807.0      29975190.0        386423.0
1112            39999965.0      10025252.0        386421.0
1112            39999970.0      10025245.0        386423.0

1516_13.GSI

1314                   4.0      10061495.0        216187.0
1314                   8.0      10061511.0        216187.0
1314            19999808.0      29939078.0        216187.0
1314            19999793.0      29939047.0        216187.0
1314            19999795.0      29939062.0        216187.0
1617            18735055.0      10053428.0        228002.0
1617            18735056.0      10053439.0        228001.0
1617            38734835.0      29947127.0        228000.0
1617            38734844.0      29947125.0        228001.0
1314            19999762.0      29939061.0        216187.0
1314            19999777.0      29939069.0        216187.0
1314                  19.0      10061479.0        216188.0
1314                  13.0      10061472.0        216188.0

1617_15.GSI

001516               181.0      10024646.0        227996.0
001516               174.0      10024644.0        227995.0
001516          19999965.0      29975950.0        227995.0
001516          19999982.0      29975954.0        227995.0
001920          19022455.0      10024935.0        421715.0
001920          19022454.0      10024900.0        421715.0
001920          19022467.0      10024921.0        421715.0
001920          39022321.0      29975616.0        421715.0
001920          39022331.0      29975611.0        421716.0
001516          19999974.0      29975956.0        227996.0
001516          19999970.0      29975938.0        227996.0
001516               183.0      10024618.0        227995.0
001516               169.0      10024609.0        227996.0

1920_16.GSI

001617          39999978.0      10017579.0        421712.0
001617          39999970.0      10017591.0        421712.0
001617          19999791.0      29982895.0        421712.0
001617          19999791.0      29982876.0        421712.0
0000ED          18651977.0       9972776.0        848074.0
0000ED          18651987.0       9972771.0        848075.0
0000ED          38651849.0      30027729.0        848074.0
0000ED          38651850.0      30027739.0        848074.0
001617          19999792.0      29982896.0        421712.0
001617          19999818.0      29982883.0        421712.0
001617          39999943.0      10017560.0        421711.0
001617          39999950.0      10017554.0        421712.0

1920_16.GSI

001617                37.0      10048503.0        848092.0
001617                46.0      10048501.0        848092.0
001617          19999860.0      29951949.0        848092.0
001617          19999867.0      29951955.0        848092.0

ED.GSI

19020                 66.0      10048456.0        848092.0
19020                 86.0      10048436.0        848090.0
19020           19999948.0      29952030.0        848092.0
19020           19999953.0      29952020.0        848091.0
